﻿{
  "version": "1.0.0-*",
  "dependencies": {
    "Docitt.Applicant.Abstractions": "",
    "LendFoundry.Configuration.Client": "1.0.8-*",
    "LendFoundry.Foundation.Logging": "1.0.10-*",
    "LendFoundry.Foundation.Persistence": "1.0.2-*",
    "LendFoundry.Foundation.Persistence.Mongo": "1.0.2-*",
    "LendFoundry.Foundation.Client": "1.0.0-*",
    "LendFoundry.Security.Tokens.Abstractions": "1.0.0-*",
    "Microsoft.Framework.DependencyInjection.Abstractions": "1.0.0-beta8",
    "MongoDB.Driver": "2.2.0"
  },
  
  "frameworks": {
    "dnx451": { }
  }
}